[gd_scene load_steps=9 format=2]

[ext_resource path="res://Scripts/BrownBunny.gd" type="Script" id=1]
[ext_resource path="res://Assets/Jumperpack/PNG/Players/bunny1_jump.png" type="Texture" id=2]
[ext_resource path="res://Assets/Jumperpack/PNG/Players/bunny1_stand.png" type="Texture" id=3]
[ext_resource path="res://Assets/Jumperpack/PNG/Players/bunny1_walk1.png" type="Texture" id=4]
[ext_resource path="res://Assets/Jumperpack/PNG/Players/bunny1_walk2.png" type="Texture" id=5]

[sub_resource type="Animation" id=1]
resource_name = "Idle"
length = 0.2
tracks/0/type = "value"
tracks/0/path = NodePath("Sprite:texture")
tracks/0/interp = 1
tracks/0/loop_wrap = true
tracks/0/imported = false
tracks/0/enabled = true
tracks/0/keys = {
"times": PoolRealArray( 0.1 ),
"transitions": PoolRealArray( 1 ),
"update": 1,
"values": [ ExtResource( 3 ) ]
}

[sub_resource type="Animation" id=2]
resource_name = "Jump"
length = 0.1
tracks/0/type = "value"
tracks/0/path = NodePath("Sprite:texture")
tracks/0/interp = 1
tracks/0/loop_wrap = true
tracks/0/imported = false
tracks/0/enabled = true
tracks/0/keys = {
"times": PoolRealArray( 0 ),
"transitions": PoolRealArray( 1 ),
"update": 1,
"values": [ ExtResource( 2 ) ]
}

[sub_resource type="Animation" id=3]
resource_name = "Walk"
length = 0.2
loop = true
tracks/0/type = "value"
tracks/0/path = NodePath("Sprite:texture")
tracks/0/interp = 1
tracks/0/loop_wrap = true
tracks/0/imported = false
tracks/0/enabled = true
tracks/0/keys = {
"times": PoolRealArray( 0, 0.15 ),
"transitions": PoolRealArray( 1, 1 ),
"update": 0,
"values": [ ExtResource( 4 ), ExtResource( 5 ) ]
}

[node name="Bunni" type="KinematicBody2D"]
script = ExtResource( 1 )

[node name="CollisionShape2D" type="CollisionPolygon2D" parent="."]
position = Vector2( -0.902496, -22.5625 )
scale = Vector2( 1, 1.28 )
polygon = PoolVector2Array( -36.0245, 28.655, -39.2023, 31.7582, -47.941, 31.4479, -48.3382, 33.6202, -36.0245, 43.5506, -26.8886, 36.4131, -11, 41.9989, 4.09418, 43.5506, 13.6273, 42.6196, 21.9688, 39.8267, 27.9271, 36.7234, 36.2686, 43.2402, 49.7739, 33.9305, 49.3767, 31.1376, 41.0352, 31.7582, 37.8574, 28.0344, 32.6937, 20.8969, 34.6798, 13.7594, 34.6798, 5.38066, 31.8993, -2.99809, 29.9132, -7.96327, 26.7354, -12.9284, 17.5995, -19.4452, 20.7772, -25.9621, 22.3661, -31.8582, 21.9688, -36.5131, 19.1883, -41.4783, 14.819, -45.5125, 9.65518, -47.0641, -9.01393, -47.0641, -16.1638, -43.3402, -18.9443, -39.6163, -20.9304, -34.3408, -20.9304, -29.3756, -18.9443, -25.0311, -16.1638, -20.0659, -19.7386, -14.1698, -25.6969, -8.58392, -30.0662, 0.415474, -31.2579, 10.0355, -31.2579, 17.4833, -30.0662, 23.0691, -28.8746, 28.9653 )

[node name="Sprite" type="Sprite" parent="."]
position = Vector2( 0, -25 )
scale = Vector2( 0.655377, 0.632802 )
texture = ExtResource( 2 )

[node name="Animator" type="AnimationPlayer" parent="."]
anims/Idle = SubResource( 1 )
anims/Jump = SubResource( 2 )
anims/Walk = SubResource( 3 )

[node name="Camera2D" type="Camera2D" parent="."]
current = true
limit_left = -7
limit_top = -7000
limit_right = 2460
limit_bottom = 7000
