[gd_scene load_steps=3 format=2]

[ext_resource path="res://Diamond.tres" type="DynamicFont" id=1]
[ext_resource path="res://Scripts/Timer.gd" type="Script" id=2]

[node name="TimerCounter" type="Label"]
margin_right = 40.0
margin_bottom = 40.0
custom_fonts/font = ExtResource( 1 )
custom_colors/font_color = Color( 0.329412, 0.160784, 0.290196, 1 )
align = 1
script = ExtResource( 2 )
minute = 2
second = 30

[node name="Timer" type="Timer" parent="."]
autostart = true
[connection signal="timeout" from="Timer" to="." method="_on_Timer_timeout"]
